{
  "__type__": "cc.SpriteFrame",
  "content": {
    "name": "store_test_skin_frame",
    "texture": "3e629942-e9bb-4627-bb46-60b6d137cfec",
    "atlas": "",
    "rect": [
      0,
      0,
      450,
      100
    ],
    "offset": [
      0,
      0
    ],
    "originalSize": [
      450,
      100
    ],
    "capInsets": [
      0,
      0,
      0,
      0
    ]
  }
}