{
  "nodeFoldStates": [
    "fcjPwTCVJMeKcDGnMHJb9N",
    "10CMo4b/1JD49ymIvvezQ8",
    "2asSH00iJNZqGJ9oW3BRqP",
    "3e5l9x+uNDAZ6lNn81/OtL",
    "ebM/+1CwNA172bvMUP4lAS",
    "79TG6FaAdKg4/t+8Ap0tNF",
    "b61rJz/I1HPrZ6epBq8+as",
    "f7qtv7YBNJKp9ullnA9egm",
    "04pZzjoHpJMYCyHYz/xdV8",
    "1cf9K4cPNNf4xGznLPE5oV",
    "07xAQNyolGF4qSB/NK9oT7",
    "7bhYZ2JJVOWpiVCYG6zCLr",
    "a3whyAqd5OyrZ64ZM6HtiD",
    "9b6mOUIX5GsrvClga8Yd5S",
    "3f+7xp3mhMOZLXevNxxOIp",
    "57dqIb+HxOv6YizHmHkWGp",
    "7fhXKP7JFHzIXrSjG5twy5",
    "a7R5Q7czlLf6vbtX4iB4lF",
    "47X0g3sfVPc4jDGQ4JRnaY",
    "bduurUTcdHfLTUIG6J4moy",
    "bbLZU4OoJFJYpWy5nm3RAZ",
    "fcYhYRAllDs7syc9tMUeD6",
    "75PgUla/NPWZ9JK3tomugN",
    "c1IYm/hPlFUaJ0EoUnoy0s",
    "b6eu3Y2itFMobdcdRBGdwu",
    "dcp2Yl8IBF+IjnP1Un1mKa",
    "7fo3UFDq1LnK6lhEyrNSmP",
    "ec2LYC3NJDOLeRHxa/vHCu",
    "014H3yNttMS5U61Qbt+gAr",
    "d3spV1YY5HY605U8uCK/CX",
    "1emwiPpepJO7g1R+wl0xTb",
    "d7icwDj9dNYqMgEqeW9M7U",
    "a3ei+U1SNAQrc73BSjMdKE",
    "28V+oQq71E+5upBkrY9+9B",
    "4c8AUcYMZNMK21IAnzdkYq",
    "bdb14yJetCQJGGFJfNC1D4",
    "58vnKQNOJPeaJuH1e2CCN2",
    "32fiOMN7VKKoAnlrjiZObW",
    "92mjQPQthIi5e3V4ioZ8rS",
    "87SA2SdARKFbZjnnNOm3JH",
    "11opScbdZPSK0knXjjdkk+",
    "e9+YyMxsBNn6Ay0KoX+12H",
    "f07iGTddpPSpW7qJfMyFuf",
    "b2ufCF1OZETpikRwn2uz6B",
    "f3r0dhFyNFNJERL/mMX6Q2",
    "18dlHV+EtBOLSxM0JvGjJl",
    "c3qy+MvDpCn6g9OGUzC7VZ",
    "f7FuDGsyxMnbGhch7AyPGn",
    "1eFd1wv+tB45/oI2evOQ3z",
    "a6Z1IKptREwJx07cU783pv",
    "a8pgJGQglMU7pQkMcTV63R",
    "07T4wiezNHQLqvF2xuN9HK",
    "65jmRGZ9ZMaZSp1FM10kUC",
    "262bl1Of1NWLm2M+vN3e9h",
    "9e9UwPoBpNuLWPTElLBP7f",
    "cfZfaDcSdFyZprjf+R77Xm",
    "8foPFnpodBfq8sxn949zFs",
    "60TfQeidhEZoOLcDITihLE",
    "23ffJvnpBKLaTKLjcI6T1Q",
    "dfKtEFjwNG0a+04i3Rxezr",
    "72JCDjdaBJi6DJ4xj2bvD3",
    "018svBu+1IEZaZGZ45Jvjd",
    "01HkulxytHqZde+3I+ux5k",
    "d0XCRBd8xDJaHzBxyka8Ww",
    "90rsYhRstElKlg3FP+LWXY",
    "ecvRi7gNVM+Z2gDQR1iUfx",
    "75CKUto/pORIVjxe7P1Vty",
    "92EaaUJEVGjotKXF3d9oyG",
    "5cSQLXltBCNb0h+raQJ2Es",
    "30LFKccoNGTauiXv66Qtq2",
    "2eaJ0CWWZLYIEpmHWW8v0M",
    "32svyjJoBGsLT5rdhaty3V",
    "1aS8qu9aBMF4HqIkQpRyDf",
    "cbBQ8cuaBG2YpYeEQRfjPC",
    "1asTifP8ZPtodHEGZKLiWC",
    "e0WcPtMrpGB4nGITZPduMd",
    "a0e9xamzpAlIvlmdnfTtuB",
    "famXFfZl5IcYDMKR9QeIb8",
    "07tyPWQ7pMg7x636jqyt8p",
    "84sfcn/vBLOK0pDKJ24q9x",
    "bfmc6S1FVI9pZ05FA/CGq7",
    "36+QNeZ7xCnoZdIEkeRMLp",
    "c9RfSpZfxInLNDgqDAkQWz",
    "f1D+smg/ZA67TdmH02v7to",
    "57H79brdRI3JiOa79dok9X",
    "610R3+6vhAkoISbyLGwPLq",
    "e3Vww2bdJBTZlRKMHreNfj",
    "6bOoTkVvpC57Y5KLQey6xC",
    "c1U65wQnFAmI30giVViTIj",
    "e6lP6iax9HlqPxhBIxu7B9",
    "34ORdP6RtCSYNZQObwD0Mm",
    "40FRleu21Gi4HZZnwZe2vk",
    "10logXBzpBLLuvJktkXME6",
    "4fswSTXDBFSpblaG+OFSr0",
    "03lJH8naRGHZC5K2BspovI",
    "2dXGFoV3tF/YHkfE8LGfTl",
    "aed2b4At5FVrtuYSEqg3sG",
    "92JkFCMyBHuas1C29JhRq5",
    "1b6QRxsVFAqqt3g+tLy82r",
    "99czS0xUdC2bBv+qzTpPVs",
    "7eZYlRwDdBVb5uXulXuCoP",
    "03OFT6EO1Iu6bL7UwIXBzu",
    "15TCOtPIdCaZzluM7ystB8",
    "3d3wU+VxVPF5//um1ElDby",
    "bd3AKsnkdJYaap8fpB22mx",
    "c8XDlG90JHKr3R3Yox8S+M",
    "41NKDGybRMmbT1LlfaTULq",
    "6aXjYiNP1A3aAYp9oddFyb",
    "e6d6VpszpOfJAiloShaUeO",
    "d5F7NSZ3tGJoaSb8p61D8K",
    "80PRs4N3RKBp9mJpR3p7Pg",
    "2amsTSJGxMgr/LG/VxAtfp",
    "d0rvKtAVJBjIH8ia6JidDU",
    "a3jRIljStLHaM4YfVjs0hx",
    "70ri3hyLBCXKEkpF+7Bdh/",
    "d2l7gJUpJIA5QhvtImO3WL",
    "ed6Dz7zgpCpIcaAy5dZTJu",
    "7eoTaF30ZPt7GLHgI5u4h3",
    "bdNgpHcHVIOIJzcHziWAQx",
    "e46SMl53lIu5mqqTHDzHeD",
    "b8GbvOsm9G9qJcuLA9M0iI",
    "3eULrBur9KXJnvo7/pxHKg",
    "20xXuPK4pNIZrPJxCiuR5+",
    "6a/4UYnwlGraVq43Px2XWg",
    "e9VP62a0lAUa+JVQZJ4019",
    "87SiR4+vJF45YKlcOiyPcO",
    "7dEo8bd0pOv5q1QwwKlH6T",
    "ddbUapKgZEhYw3Ah+awr3s",
    "d9Q46ysdBPGpKy5EyZG59E",
    "3dCFuLVQNNYpPb55DmzQtE",
    "6fWB2/Zt1Ex77RD+s9NtrE",
    "80IpDrJx9CI4c5l3dLc4b/",
    "41kYje1RpOprpWQpbmnIWG",
    "e1taQSd7pFOqiyin1D08Nn",
    "68idVqWvRBn7HSoCtAMzom",
    "2edoyAkwxODaL99K7M/uDd",
    "cdrtdRvrtIzJfO/wcXsEnm",
    "27LZGhQS5HnI83P410r4km",
    "28clbboB9FM6JTX3VHxuR2",
    "fduSjBRqZC7KHiQrdJHH76",
    "d3F4qplE5J7JlWCfu0o5f4",
    "02u54tQd1DdYOZdjaiGik+",
    "13lQoF3S1DyJpUiUtty/VQ",
    "c7gzBdgxhJXYcJRLs5CScy",
    "edHcwWcLZEwYcrI9Zee4uD",
    "a3nnvSkThOh76WZTE/78ft",
    "add98GnvZGFYHHJOlGCfhh",
    "48HXQKBg5K7bPpgQddzkyI",
    "e5zg/rhjtIwrkg6NSvD3De",
    "8b9tDGHtZCJ7z0NerOk66c",
    "57guSTKYFCoL0yaSXxTqYa",
    "00Y+DrtIFH1rtXqaVyPRWh",
    "70sN1UcrBA/I7/Db5kyMnt",
    "ac5qCJqkdADpryUtrX7qIA",
    "8acqQ204NG1beXqTQLszFz",
    "6a1wIhWI9EYo8eIZnJMfux",
    "15mjCTEW5IpoaNKpo+V5nx",
    "1d+qdEvxVPq6NoM6Z+5hJh",
    "6dBI5Hv8lP3pw17oXKsmM6",
    "74ao7dtpRPRJYyxxyOJfRg",
    "e1QUrgUPxOEJh/K/d4lrGe",
    "9fufvOGthEQpHX+L7cBi4n",
    "261sArSQFIdJ0udJl9j/Hg",
    "ebpy02sqNLZ7hiyevR5HcQ",
    "50DsRD7nJNLqgPBJfdihIX",
    "56bxw5g9tHH6VutTCiMSwu",
    "b61AtjnEBApImOWrGuXALq",
    "f4DmrvaxJKT5dnPGDBKxeO",
    "2bQpVqI0dCdIthgF3DqB9a",
    "888PhBlpZENrRU/x/Q+o02",
    "b52pmEANVGrae3Nb4WeWee",
    "abCdET9dJGFLQKYsPaltWz",
    "44kGljMJtPg4ru1GS/wH2f",
    "17POtvJP1CNZUK3aVkWqjk",
    "076T9sWqRBe4g8QOKTo2Zu",
    "b486kCfhJLXKG6fo5t/a2A",
    "32wfpOMFRCWZZSlhGYzI/2",
    "f5uN5PavJAg4UbSZw7sSUj",
    "308g6/hstBkpeI/t9afLwv",
    "23x/aUI0lAKp5WgNxnjdjF",
    "57rE+9cMBKcbaiC9kJCxHi",
    "56jxS/G69BDqbCRkg2BlDH",
    "b8FdIKZ4FB/6p8bNGdg0Qa",
    "49glGijORD/IXGWGQiJCt0",
    "b2FMAmKStFP65gRJSf8Skk",
    "2cprfE+aNMq4rmcea89XP2",
    "93N4BMGWhHh54ppFOYBffV",
    "d7YfeE+OxNr71EkZDgH/eY",
    "005ew2sxJKGY+5MCLNd3gs",
    "a1paW0v1VOj4FkLr7NCUWa",
    "b2L8xNL7lLwIO1NaB4xKkq",
    "d0HX/7jfxF/6IMZuGo9gC0",
    "43ND2yll1B4IjNOi+ikqyy",
    "c98zeNi4NERrGVJXESzAVS",
    "90AAevb6xMbq8B91b9j0Vs",
    "400eKb6ApEbIHKgdZFuJVK",
    "a843JYIZFJdI3hOYTnrAIo",
    "e1X27DJKtMkbnUpHyQd9cV",
    "a350fAfndKMorKdQdoT23N",
    "9aA3gxTkhHq73mPjNaPr4p",
    "22MTVKzfBPIZeaSNfJif07",
    "93sTWE0C5K87Sdv2DYiYlT",
    "8ec8lSI2hKSJO5BGsB3WFq",
    "c0o4ghQU1N17qBlmcBhzjm",
    "91HyBRsH9OOLQpmHycSV9g",
    "acW6PnMGdFzKJ4HparOszl",
    "26QhYQiXlAx6VBuoFea+Hv",
    "58Ge9DF3xOj43ekpE97plS",
    "bdVLx0659Dt4s1R5Wj7uhw",
    "3frvkDffVFoKUmS9vGrEP0",
    "0fwhFSrT1EX4A8GVogebbJ",
    "f5kgCD9MpCupA0LXRoS7b4",
    "9dpZDvswNNGppEaXvWp2Fl",
    "aeY3rmdQZOu4UMjw9l8sAp",
    "528jCh/c1JqaCi43iRwXcw",
    "1bGVppSGtBM7i7oMvmi/Kz",
    "9ab0t6tN5E3KpGP0AzoMWy",
    "e1im8SAcZKYoImyE5NxwzI",
    "42QKPhKsVBQby9FTNAHpKP",
    "14j4lwwypPAouF3WIKtSyp",
    "484MbbmgRBd7lLtqhK4Apb",
    "d7f+AryS5BErKgmj5XywDR",
    "45qVub+1lGgbimow2n2/w0",
    "deTdHnCuxCl4IhYmPpYTWi",
    "24yzaVph5KB54xm2shNkxl",
    "8euYn1twxForTCEufLd5UF",
    "afUVZD9udKg7OjyLjcBtRJ",
    "1ebd4Jdo9PYLgi2Df9IMA5",
    "efCuNEJ+VIBJMUeTyba7Kd",
    "85NtzOci9KF56baM9EEuOk",
    "72nwKYcUBPpYR6C75LKSlV",
    "92IH3KLtpAlK0133aSE0md",
    "58SbgxkoFOq5zbIx2lRq33",
    "15baACWbdAv5UlbI66OWyA",
    "ccCnIjs/VH2KvwYwA3onkm",
    "49M6XsX+hJ7p0P+yd/bk+o",
    "baRKyYb+xNP7+/U7uYle5m",
    "57umj+9C5Bsb7FvbyXbKeA",
    "75/Qhaq05P6IYUMQQcjAFz",
    "7beZXAJHBOsbnlg/4IosjS",
    "0eUH2Hm+9KMpWBsT+W+v3z",
    "15W9bbJANMoJS9Vvb6Q7Ep",
    "e8rcjmmW9Oe6us7n3rIWN+",
    "deInPc6eFMP7f//JEfn03p",
    "71pn6FlYJGXpZwG5jaC0Sl",
    "2cnqryqOFI5I5Jr+/fB9oW",
    "78hZcWYqJBULypdaiZqXjp",
    "76eSIGw6NGt5hhV7vu477k",
    "c3EV60o6VMjIq556MrFRdD",
    "5bwTecB9ZJNJNKUX3GXfCH",
    "4f0ETNY3ZLbbWU7NEAB8FR",
    "82RM+GU3FPIImxf70gPUaR",
    "f2LJd7x41BK7MsxlG5yNwY",
    "b8kAmLnIJHRb7866aI9wa+",
    "1cZvoK2yJD6qygfUdblIkn",
    "2eNWiVbQBGzrvy4zA+c8eP",
    "c4GykjEcBAuY00imMYetV7",
    "32UGHjV09Jxopk72xRZkKg",
    "d4kqvh8F1GUZNKagKF+bmL",
    "1e77EoAF5CA4InE6SVU1JQ",
    "e6dujABp9CcbQt5q8g6fGF",
    "89XgqeCw5OoqMIYFyMIgeb",
    "87bygFPmZERZY2I/5f6Vqy",
    "ce2WT4djJORaX2rzvxou/s",
    "1dzBYrMuxF46z6hXYD22dr",
    "4cBuNzJmJJh4a37Gr2cGlf",
    "adrZgY4ipK2aKHEWEhibRp",
    "f3OAQtB+pP6IqlhosteBBP",
    "7aR83cZwNFdITqGQd+KLm6",
    "7670WpKmhE9b8BVjs3BN1h",
    "b323bUS8xPjYKd/jAx46ca",
    "33GZPu3tJOt5L+7uXEzBXc",
    "d4EztU4xhNP6Nx1UuRYLx9"
  ]
}
