{
  "__type__": "cc.SpriteFrame",
  "content": {
    "name": "testing_cell",
    "texture": "7f501226-c1a1-4678-b706-b60fd7c60976",
    "atlas": "",
    "rect": [
      0,
      0,
      20,
      20
    ],
    "offset": [
      0,
      0
    ],
    "originalSize": [
      20,
      20
    ],
    "capInsets": [
      0,
      0,
      0,
      0
    ]
  }
}