{
  "__type__": "cc.SpriteFrame",
  "content": {
    "name": "piranha-plant-3",
    "texture": "851371f3-0e19-4171-87f2-8fd6549d9dba",
    "atlas": "",
    "rect": [
      22,
      15,
      19,
      30
    ],
    "offset": [
      1,
      -7.5
    ],
    "originalSize": [
      61,
      45
    ],
    "capInsets": [
      0,
      0,
      0,
      0
    ]
  }
}