{
  "__type__": "cc.SpriteFrame",
  "content": {
    "name": "Hurt face 1",
    "texture": "dd98a74d-7815-458b-a3e2-45567f10a608",
    "atlas": "742f8085-753b-41c9-8130-fd77a6539112",
    "rect": [
      0,
      0,
      2048,
      2048
    ],
    "offset": [
      0,
      0
    ],
    "originalSize": [
      2048,
      2048
    ],
    "capInsets": [
      0,
      0,
      0,
      0
    ]
  }
}