{
  "__type__": "cc.SpriteFrame",
  "content": {
    "name": "cross button",
    "texture": "8c6f7d41-088a-4553-bf23-8634391dfc15",
    "atlas": "",
    "rect": [
      0,
      0,
      28,
      25
    ],
    "offset": [
      0,
      0
    ],
    "originalSize": [
      28,
      25
    ],
    "capInsets": [
      0,
      0,
      0,
      0
    ]
  }
}