{
  "__type__": "cc.SpriteFrame",
  "content": {
    "name": "stage2_mechanism1_1",
    "texture": "bdb8f837-fa16-4a14-93c2-b5bb25a2bbbe",
    "atlas": "",
    "rect": [
      2480,
      2224,
      41,
      32
    ],
    "offset": [
      -1099.5,
      160
    ],
    "originalSize": [
      7200,
      4800
    ],
    "capInsets": [
      0,
      0,
      0,
      0
    ]
  }
}