{
  "__type__": "cc.AnimationClip",
  "_name": "dieFace",
  "_objFlags": 0,
  "_native": "",
  "_duration": 0.016666666666666666,
  "sample": 60,
  "speed": 1,
  "wrapMode": 2,
  "curveData": {
    "comps": {
      "cc.Sprite": {
        "spriteFrame": [
          {
            "frame": 0,
            "value": {
              "__uuid__": "da8591a7-80ad-4b6b-bbef-0098c7fa9269"
            }
          }
        ]
      }
    },
    "props": {
      "opacity": [
        {
          "frame": 0,
          "value": 0
        }
      ]
    }
  },
  "events": []
}