{
  "__type__": "cc.AnimationClip",
  "_name": "hurtFace",
  "_objFlags": 0,
  "_native": "",
  "_duration": 0.6833333333333333,
  "sample": 60,
  "speed": 1,
  "wrapMode": 2,
  "curveData": {
    "comps": {
      "cc.Sprite": {
        "spriteFrame": [
          {
            "frame": 0,
            "value": {
              "__uuid__": "e3015679-5165-4d63-b141-737334c1e8f0"
            }
          },
          {
            "frame": 0.3333333333333333,
            "value": {
              "__uuid__": "291bc4ec-f5c8-4157-8cbe-0139630f72d5"
            }
          },
          {
            "frame": 0.6666666666666666,
            "value": {
              "__uuid__": "291bc4ec-f5c8-4157-8cbe-0139630f72d5"
            }
          }
        ]
      }
    }
  },
  "events": []
}