{
  "__type__": "cc.AnimationClip",
  "_name": "winFace",
  "_objFlags": 0,
  "_native": "",
  "_duration": 0.6833333333333333,
  "sample": 60,
  "speed": 0.4,
  "wrapMode": 2,
  "curveData": {
    "comps": {
      "cc.Sprite": {
        "spriteFrame": [
          {
            "frame": 0,
            "value": {
              "__uuid__": "b6b66f7c-280c-46e3-b801-b963c5ae9153"
            }
          },
          {
            "frame": 0.3333333333333333,
            "value": {
              "__uuid__": "dbaf0350-c268-4b95-bfb6-6993f0fc5526"
            }
          },
          {
            "frame": 0.6666666666666666,
            "value": {
              "__uuid__": "dbaf0350-c268-4b95-bfb6-6993f0fc5526"
            }
          }
        ]
      }
    },
    "props": {
      "y": [
        {
          "frame": 0,
          "value": 0
        },
        {
          "frame": 0.08333333333333333,
          "value": -2
        },
        {
          "frame": 0.16666666666666666,
          "value": 0
        },
        {
          "frame": 0.25,
          "value": -2
        },
        {
          "frame": 0.3333333333333333,
          "value": 0
        },
        {
          "frame": 0.4166666666666667,
          "value": -2
        },
        {
          "frame": 0.5,
          "value": 0
        },
        {
          "frame": 0.5833333333333334,
          "value": -2
        },
        {
          "frame": 0.6666666666666666,
          "value": 0
        }
      ]
    }
  },
  "events": []
}