{
  "__type__": "cc.SpriteFrame",
  "content": {
    "name": "Jump face 1",
    "texture": "bcba4016-bf8d-4053-bcc9-c353fd549647",
    "atlas": "ec739caa-2b50-4baf-8acc-bdb45588ceaf",
    "rect": [
      0,
      0,
      2048,
      2048
    ],
    "offset": [
      0,
      0
    ],
    "originalSize": [
      2048,
      2048
    ],
    "capInsets": [
      0,
      0,
      0,
      0
    ]
  }
}