{
  "__type__": "cc.SpriteFrame",
  "content": {
    "name": "bee-4",
    "texture": "d4d6ca12-5307-44ab-9bf9-58cbf7847afc",
    "atlas": "",
    "rect": [
      6,
      9,
      27,
      25
    ],
    "offset": [
      1,
      -2
    ],
    "originalSize": [
      37,
      39
    ],
    "capInsets": [
      0,
      0,
      0,
      0
    ]
  }
}