{
  "__type__": "cc.SpriteFrame",
  "content": {
    "name": "stage1_tilemap4",
    "texture": "7c5398f0-f482-4bf7-af42-8a4fac70c595",
    "atlas": "",
    "rect": [
      0,
      0,
      7200,
      4800
    ],
    "offset": [
      0,
      0
    ],
    "originalSize": [
      7200,
      4800
    ],
    "capInsets": [
      0,
      0,
      0,
      0
    ]
  }
}