{
  "__type__": "cc.SpriteAtlas",
  "_name": "Login face.plist",
  "_objFlags": 0,
  "_native": "",
  "_spriteFrames": {
    "Face1(log in)": {
      "__uuid__": "10cf1663-7455-4ca1-a0ff-586e1e823a8f"
    },
    "Face2(log in)": {
      "__uuid__": "2f30d0d3-5c78-49ee-b9a7-d81299c4b5c4"
    },
    "Face3(log in)": {
      "__uuid__": "310c68d5-432e-4391-b65a-d94ef731f55b"
    }
  }
}