{
  "__type__": "cc.SpriteFrame",
  "content": {
    "name": "fruit",
    "texture": "dfbf0f99-8fcd-480c-8daa-d389d3165e3c",
    "atlas": "",
    "rect": [
      284,
      83,
      479,
      473
    ],
    "offset": [
      43.5,
      0.5
    ],
    "originalSize": [
      960,
      640
    ],
    "capInsets": [
      0,
      0,
      0,
      0
    ]
  }
}