{
  "__type__": "cc.SpriteFrame",
  "content": {
    "name": "Mummy",
    "texture": "f983d975-890d-4ed7-98ca-f6e6c4f0fc4a",
    "atlas": "",
    "rect": [
      2,
      6,
      2046,
      2032
    ],
    "offset": [
      1,
      2
    ],
    "originalSize": [
      2048,
      2048
    ],
    "capInsets": [
      0,
      0,
      0,
      0
    ]
  }
}