{
  "__type__": "cc.AnimationClip",
  "_name": "bee",
  "_objFlags": 0,
  "_native": "",
  "_duration": 1.1833333333333333,
  "sample": 60,
  "speed": 1,
  "wrapMode": 2,
  "curveData": {
    "comps": {
      "cc.Sprite": {
        "spriteFrame": [
          {
            "frame": 0,
            "value": {
              "__uuid__": "5d60e68e-be4b-4aae-ac4f-5be895d38ad0"
            }
          },
          {
            "frame": 0.08333333333333333,
            "value": {
              "__uuid__": "861007af-fe0a-4f2c-9744-3b305d28642f"
            }
          },
          {
            "frame": 0.16666666666666666,
            "value": {
              "__uuid__": "4edb8b13-d29d-4529-ad95-b8e805ef53a3"
            }
          },
          {
            "frame": 0.25,
            "value": {
              "__uuid__": "141659da-890b-49e5-a40b-e3be5369e089"
            }
          },
          {
            "frame": 0.3333333333333333,
            "value": {
              "__uuid__": "75cb0304-1da1-4314-b557-890d0833a69e"
            }
          },
          {
            "frame": 0.4166666666666667,
            "value": {
              "__uuid__": "1f4c2138-38e6-4a14-b11f-61cc1b1fa678"
            }
          },
          {
            "frame": 0.5,
            "value": {
              "__uuid__": "d4fa234e-97e3-4fbd-bfc5-d3dc090d21ae"
            }
          },
          {
            "frame": 0.5833333333333334,
            "value": {
              "__uuid__": "c4879d72-de15-45a1-a44f-0966c45c9a96"
            }
          },
          {
            "frame": 0.6666666666666666,
            "value": {
              "__uuid__": "d4fa234e-97e3-4fbd-bfc5-d3dc090d21ae"
            }
          },
          {
            "frame": 0.75,
            "value": {
              "__uuid__": "1f4c2138-38e6-4a14-b11f-61cc1b1fa678"
            }
          },
          {
            "frame": 0.8333333333333334,
            "value": {
              "__uuid__": "75cb0304-1da1-4314-b557-890d0833a69e"
            }
          },
          {
            "frame": 0.9166666666666666,
            "value": {
              "__uuid__": "141659da-890b-49e5-a40b-e3be5369e089"
            }
          },
          {
            "frame": 1,
            "value": {
              "__uuid__": "4edb8b13-d29d-4529-ad95-b8e805ef53a3"
            }
          },
          {
            "frame": 1.0833333333333333,
            "value": {
              "__uuid__": "861007af-fe0a-4f2c-9744-3b305d28642f"
            }
          },
          {
            "frame": 1.1666666666666667,
            "value": {
              "__uuid__": "5d60e68e-be4b-4aae-ac4f-5be895d38ad0"
            }
          }
        ]
      }
    }
  },
  "events": []
}