{
  "__type__": "cc.SpriteFrame",
  "content": {
    "name": "piranha-plant-attack-1",
    "texture": "807c9a0a-fe97-4029-a6e3-588f43f2e1b3",
    "atlas": "",
    "rect": [
      19,
      11,
      23,
      34
    ],
    "offset": [
      0,
      -5.5
    ],
    "originalSize": [
      61,
      45
    ],
    "capInsets": [
      0,
      0,
      0,
      0
    ]
  }
}