{
  "__type__": "cc.SpriteFrame",
  "content": {
    "name": "WinFace2",
    "texture": "9dc05958-ec42-49a9-95bb-2333a3d750f7",
    "atlas": "7d7ed043-b4f7-40f8-86f3-909d000c4374",
    "rect": [
      2048,
      0,
      2048,
      2048
    ],
    "offset": [
      0,
      0
    ],
    "originalSize": [
      2048,
      2048
    ],
    "capInsets": [
      0,
      0,
      0,
      0
    ]
  }
}