{
  "__type__": "cc.SpriteFrame",
  "content": {
    "name": "Face3(log in)",
    "texture": "ec97fa51-4d06-4852-89c7-7351c429f553",
    "atlas": "d7408102-24a0-4e94-b30c-996576a616da",
    "rect": [
      0,
      1280,
      960,
      640
    ],
    "offset": [
      0,
      0
    ],
    "originalSize": [
      960,
      640
    ],
    "capInsets": [
      0,
      0,
      0,
      0
    ]
  }
}