{
  "__type__": "cc.AnimationClip",
  "_name": "flower_attack",
  "_objFlags": 0,
  "_native": "",
  "_duration": 1.0166666666666666,
  "sample": 60,
  "speed": 1,
  "wrapMode": 1,
  "curveData": {
    "comps": {
      "cc.Sprite": {
        "spriteFrame": [
          {
            "frame": 0,
            "value": {
              "__uuid__": "98a92b2d-8af1-4436-9ce8-7ead1b5a9af0"
            }
          },
          {
            "frame": 0.25,
            "value": {
              "__uuid__": "8c2d7709-d312-4718-848d-1b3d0a59a172"
            }
          },
          {
            "frame": 0.5,
            "value": {
              "__uuid__": "8a153207-850b-498c-91eb-e3ff8c56d280"
            }
          },
          {
            "frame": 0.75,
            "value": {
              "__uuid__": "70a60b9b-08cd-44d4-80c0-902cb4e0fcc2"
            }
          },
          {
            "frame": 1,
            "value": {
              "__uuid__": "98a92b2d-8af1-4436-9ce8-7ead1b5a9af0"
            }
          }
        ]
      }
    }
  },
  "events": []
}