{
  "__type__": "cc.SpriteFrame",
  "content": {
    "name": "Button3",
    "texture": "64e361ec-4103-466a-ae85-c9e393f248fb",
    "atlas": "",
    "rect": [
      562,
      685,
      730,
      676
    ],
    "offset": [
      -97,
      1
    ],
    "originalSize": [
      2048,
      2048
    ],
    "capInsets": [
      0,
      0,
      0,
      0
    ]
  }
}