{
  "__type__": "cc.AnimationClip",
  "_name": "flower_idle",
  "_objFlags": 0,
  "_native": "",
  "_duration": 1.0166666666666666,
  "sample": 60,
  "speed": 1,
  "wrapMode": 2,
  "curveData": {
    "comps": {
      "cc.Sprite": {
        "spriteFrame": [
          {
            "frame": 0,
            "value": {
              "__uuid__": "7498f2a3-75f2-40e6-b711-9f9d579418c4"
            }
          },
          {
            "frame": 0.25,
            "value": {
              "__uuid__": "0a5e002a-0df6-4790-b0b4-918aca3f7c79"
            }
          },
          {
            "frame": 0.5,
            "value": {
              "__uuid__": "314ebda8-3c4a-492a-a793-c65445c15a8a"
            }
          },
          {
            "frame": 0.75,
            "value": {
              "__uuid__": "57bfd91f-c4c6-42ce-8350-784c7e219f9a"
            }
          },
          {
            "frame": 1,
            "value": {
              "__uuid__": "290a49ab-d3cf-4a73-9eaa-71bccf53f4d8"
            }
          }
        ]
      }
    }
  },
  "events": []
}