{
  "__type__": "cc.SpriteFrame",
  "content": {
    "name": "billy",
    "texture": "4a16034c-504c-4ea6-aac1-bd2f2cc9f5db",
    "atlas": "",
    "rect": [
      249,
      134,
      386,
      398
    ],
    "offset": [
      -38,
      -13
    ],
    "originalSize": [
      960,
      640
    ],
    "capInsets": [
      0,
      0,
      0,
      0
    ]
  }
}